id;display_name;last_update
1;primary driver;2019-07-25
2;Frozen moratorium;2019-07-24
3;24/365 generate;2019-07-25
4;Armenian Dram deposit Internal;2019-07-24
5;Plastic Soap;2019-07-25
6;Rustic Louisiana withdrawal;2019-07-25
7;Centralized;2019-07-24
8;synthesize;2019-07-24
9;New Jersey;2019-07-24
10;fuchsia SCSI;2019-07-25
