id;label;done;last_update;todo_list_id
1;Officer payment Afghani;true;2020-04-09;1
2;Cotton;false;2020-04-09;2
3;payment;true;2020-04-10;3
4;yellow deliver;false;2020-04-09;4
5;deploy;true;2020-04-10;5
6;Serbia bandwidth;false;2020-04-09;6
7;Bedfordshire;false;2020-04-10;7
8;Auto Loan Account Senior Developer;true;2020-04-09;8
9;Home Loan Account;true;2020-04-09;9
10;budgetary management Underpass deposit;true;2020-04-10;10
